110982 663158 509
845040 843980 357
681812 748171 504
72831 929487 525
808978 918285 525
290043 49821 443
269199 37605 443
323094 687664 509
443777 627905 509
834546 765642 468
190820 124814 383
66517 973636 525
986401 170284 525
401868 18661 443
701242 730081 504
309507 849585 525
972647 187858 525
654805 136972 509
415346 528444 470
301601 823563 509
720739 81630 509
3548 274641 443
377358 818693 509
179169 13999 383
850428 670524 525
653075 690623 442
232040 401834 441
317463 203246 443
307423 103121 443
790442 748712 468
676330 468122 509
475781 844501 525
368274 951125 525
752780 464039 509
836949 762406 468
704002 179523 509
769079 955041 525
280530 309687 389
569590 289707 470
759037 555527 509
478562 725163 509
205601 939580 525
458859 655464 509
511230 631714 509
853916 575295 525
312331 191477 443
565657 238091 470
136215 600112 470
189129 825452 509
908636 739694 525
173969 400556 443
572060 179756 470
654640 779892 504
707084 541550 509
54655 459956 449
926709 347261 525
230611 931434 525
676111 668144 385
155217 783341 509
702345 196683 509
721196 948898 525
483022 940844 525
439371 196364 449
873074 451192 525
391910 798082 509
316 997915 525
998113 630847 525
377773 930492 525
70861 89915 351
199085 621904 470
429240 789711 509
631029 259744 509
74790 431061 449
908226 437560 525
553826 968068 525
516473 994481 525
205296 732597 509
727775 702422 504
353552 686191 509
922298 861734 476
636272 753658 504
832449 352025 509
955134 406332 525
948827 242005 525
736237 257596 509
355638 818433 509
742589 561625 509
976868 333796 525
396140 987877 525
201319 991486 525
368792 630567 509
408221 499084 449
138632 336295 443
4931 96517 351
423908 29192 449
844853 395969 525
212447 455287 449
272779 680235 509
637195 657025 429
635595 330393 509
183549 637885 509
388225 614403 470
905326 7455 525
398499 649936 509
54348 646778 509
766491 980924 525
902325 612789 525
937864 959808 507
641917 170250 509
5835 594668 470
916456 884352 476
639484 200711 509
893040 771213 525
133449 27176 354
289670 641817 509
349649 321572 441
792631 280626 509
32485 917899 525
598101 396911 470
672464 406931 509
640816 994355 525
43029 196533 383
480778 690108 509
467914 967305 525
923687 14821 525
684713 307390 509
82047 367550 443
21985 684726 509
440869 936573 525
421182 587300 470
896545 755656 525
624574 507355 470
195923 770337 509
944037 346585 525
586582 547375 434
720922 909566 525
475345 298812 449
64840 913393 525
706387 889828 525
592681 297126 470
344285 328983 366
118570 204155 383
703472 320082 509
863403 976462 507
918684 889050 476
757641 544482 509
136089 98954 354
127884 71630 354
314390 147408 443
221814 710720 509
679787 601497 509
600502 233999 470
551749 356740 470
865389 705685 525
418095 311294 449
24635 494379 449
176903 971617 525
268510 785705 509
99329 775106 509
313697 673571 509
848329 648631 525
578730 880810 525
812251 236020 509
768508 98557 509
558851 446418 470
445237 485127 444
515189 723042 509
816433 148892 509
348922 215612 443
572840 64031 470
116686 151510 375
177293 336632 443
248446 427012 449
133679 883242 525
269408 14896 443
539260 8568 470
363553 895876 525
624563 621174 372
981255 876114 507
694639 184247 509
323038 17364 443
732806 623062 509
370332 490620 449
87827 449135 449
904137 385715 525
776227 947793 525
421010 740016 509
160846 560570 470
586249 684505 509
85748 839664 525
344235 602121 470
95164 259517 443
564779 598655 434
898713 232741 525
574718 49955 470
329626 988532 525
442546 358290 449
211900 508077 449
644439 91134 509
815466 974551 525
744405 503442 509
329174 698644 509
640481 51677 509
675733 849336 525
276622 638710 509
738369 30375 509
471207 373299 449
199153 166054 365
379142 870493 525
97426 422435 449
30547 293685 443
688932 542935 509
858590 727644 525
865373 424155 525
911961 115494 525
34421 718688 509
42944 86047 351
533300 881219 525
431971 376066 449
138994 867954 525
812693 106000 509
438487 629895 509
779095 641015 504
932718 365124 525
62912 340858 443
74658 803171 509
706879 655320 504
269253 392684 441
8289 454220 449
947442 381349 525
303039 121965 443
524857 340991 470
757536 724811 424
573816 883157 525
235249 934895 525
693724 113855 509
991460 435647 525
871233 812339 525
899911 936712 476
968649 539431 525
4077 65510 340
460257 921121 525
738518 547172 509
950495 611881 525
894865 606405 525
461703 257616 449
700909 7497 509
38698 643397 509
85652 345257 443
609213 566179 434
