56134 78007 351
189720 299641 443
982324 494064 525
720542 515900 509
624642 956879 525
320098 614075 470
845937 664563 525
495533 633294 509
959372 628897 525
701827 682491 442
204085 382538 443
859392 468173 525
892698 942480 507
27540 189985 383
22617 394231 443
365377 107036 443
403780 18 443
57866 525806 470
523080 562666 452
552418 504175 470
361364 985893 525
968975 811652 525
240680 4366 443
369065 632126 509
803559 120913 509
431674 665170 509
120356 452306 449
865020 544565 525
705659 799699 468
181062 64677 383
712551 278017 509
231730 466106 449
342333 602319 470
298455 804718 509
775082 926229 525
328694 863884 525
570370 587089 434
739601 272262 509
278847 703146 509
73013 998187 525
876061 907312 445
382155 494611 449
912709 400673 525
455726 143754 449
380535 974410 525
852102 915588 476
269574 13011 443
126480 123059 331
722595 312350 509
166279 470240 449
877988 952790 507
350601 233707 441
339677 743226 509
49126 578748 470
503822 19665 449
72983 325634 443
481743 198924 449
272856 926821 525
481696 603190 470
179346 426467 449
509093 637450 509
640487 362440 509
807055 205260 509
45591 417704 449
143677 6749 375
566539 252937 470
487430 296222 449
327635 589457 470
475082 182324 449
861606 930028 476
649387 415666 509
754663 940481 525
129745 550742 470
623350 640043 509
347558 770309 509
334350 131553 443
120341 548707 470
347091 932378 525
615870 693724 509
953952 65580 525
364233 251166 441
756947 127988 509
635140 726268 504
818875 123810 509
412500 445824 418
541081 882593 525
687436 961473 525
976978 619155 525
674125 497264 509
287648 983334 525
387612 761092 509
62044 818878 509
474604 926575 525
317567 321769 371
446520 347029 449
474174 38528 449
486061 949402 525
216694 45188 386
831091 28179 509
580174 912102 525
316716 630308 509
103734 589086 470
693747 956556 525
91882 886228 525
10696 707705 509
461960 45296 449
774230 937523 525
541498 130102 470
106980 833764 509
17737 200482 383
83503 234797 443
85325 961644 525
163254 56305 383
430930 949795 525
142640 861901 525
176053 717894 509
131698 636123 509
352916 455143 449
220007 52060 386
868268 702013 525
322997 686634 509
805639 909794 525
201859 519644 470
520997 339214 470
738194 120195 509
276115 777176 509
236205 22385 443
565152 31278 470
777205 862852 525
251327 128670 443
294405 980058 525
30788 844164 525
519775 664362 509
83718 879883 525
396402 888010 525
287938 361938 441
460573 264702 449
235582 135049 443
229972 716742 509
911084 70742 525
810489 72143 509
46991 295054 443
603599 113232 470
872993 950036 507
215721 136963 383
253740 387956 441
950571 864648 507
248856 341996 407
960650 482259 525
687741 313408 509
777430 57423 509
556161 425339 470
274342 503116 449
304485 730161 509
530280 507951 470
119326 797982 509
110225 520770 470
401193 95770 443
306289 151507 443
99658 789158 509
180564 417069 449
893895 825131 525
557757 992413 525
129047 159481 383
838561 312184 525
567728 164778 470
247721 301364 407
988945 384022 525
922901 38084 525
452395 885005 525
950925 518082 525
206157 134797 383
11695 702472 509
203648 932638 525
708445 354218 509
32420 543469 470
111535 708012 509
595408 637991 509
216741 112546 386
103331 328419 443
711546 566679 509
606098 941979 525
479431 534038 470
77687 455600 449
907537 600841 525
593407 367679 470
160649 789052 509
2179 753545 509
991522 951855 458
852712 42936 525
615869 463523 470
41375 974273 525
448476 648311 509
383053 589471 470
300633 976622 525
999452 311791 525
433328 232016 449
292186 484492 449
694941 654955 442
537666 610934 452
841712 655510 525
594298 621789 447
74286 447558 449
102342 228136 386
691824 619838 509
703222 23088 509
334943 555765 470
372417 849408 525
549347 552238 377
961320 236972 525
532373 81120 470
891988 874529 445
367401 77357 443
811475 590309 509
370704 487609 449
231353 421793 449
76367 860687 525
436937 15748 449
375403 570653 470
178710 669719 509
71073 875409 525
560866 193036 470
311076 740417 509
421280 924257 525
959263 240511 525
110143 5782 354
870981 95152 525
738618 947308 525
41745 91423 351
743735 16936 509
183485 311517 443
950693 576837 525
719961 804652 468
891074 507698 525
160735 142261 383
646372 398957 509
36631 55065 340
619753 571242 447
791806 5302 509
125867 507087 449
410833 584064 470
525013 809720 509
556464 293269 470
576734 327000 470
990017 774502 525
659711 829111 504
395458 997684 525
869136 451983 525
55013 105048 351
685201 90778 509
